^C:\Users\gooni\source\repos\HW11\HelloSkillbox\HelloSkillbox.vcxproj
C:\Users\gooni\source\repos\HW11\HelloSkillbox\Release\HelloSkillbox.ipdb
C:\Users\gooni\source\repos\HW11\HelloSkillbox\Release\HelloSkillbox.iobj
